{
  "project_info": {
    "project_number": "675107030552",
    "firebase_url": "https://letschat-d500e.firebaseio.com",
    "project_id": "letschat-d500e",
    "storage_bucket": "letschat-d500e.appspot.com"
  },
  "client": [
    {
      "client_info": {
        "mobilesdk_app_id": "1:675107030552:android:a0089b854e6be4ea",
        "android_client_info": {
          "package_name": "com.example.subhashana.letschat"
        }
      },
      "oauth_client": [
        {
          "client_id": "675107030552-sp7u3hnevtkcf29mknf4270ph1nfooje.apps.googleusercontent.com",
          "client_type": 1,
          "android_info": {
            "package_name": "com.example.subhashana.letschat",
            "certificate_hash": "9c8ca44b70e00b655e3d9fa66413c149da664d72"
          }
        },
        {
          "client_id": "675107030552-hng32nkounb9blf4b37r6444dtcq7b2v.apps.googleusercontent.com",
          "client_type": 3
        }
      ],
      "api_key": [
        {
          "current_key": "AIzaSyCthwRKfSkstNbfKA32FJzpjWqIa93Amgk"
        }
      ],
      "services": {
        "analytics_service": {
          "status": 1
        },
        "appinvite_service": {
          "status": 2,
          "other_platform_oauth_client": [
            {
              "client_id": "675107030552-hng32nkounb9blf4b37r6444dtcq7b2v.apps.googleusercontent.com",
              "client_type": 3
            }
          ]
        },
        "ads_service": {
          "status": 2
        }
      }
    }
  ],
  "configuration_version": "1"
}